[
    {
        "id": "http://choppr.app/documents/1674741091539/document",
        "title": "Participatiewet",
        "fileName": "/sources/Participatiewet_trimmed.json"
    },
    {
        "id": "http://choppr.app/documents/1674740141704/document",
        "title": "General Data Protection Regulation",
        "fileName": "/sources/GDPR_trimmed.json"
    }
]